<?xml version="1.0" encoding="UTF-8"?>
<svg xmlns="http://www.w3.org/2000/svg" xmlns:xlink="http://www.w3.org/1999/xlink" width="512pt" height="402pt" viewBox="0 0 512 402" version="1.1">
<defs>
<g>
<symbol overflow="visible" id="glyph0-0">
<path style="stroke:none;" d="M 0.5625 2 L 0.5625 -7.96875 L 6.21875 -7.96875 L 6.21875 2 Z M 1.203125 1.375 L 5.578125 1.375 L 5.578125 -7.328125 L 1.203125 -7.328125 Z M 1.203125 1.375 "/>
</symbol>
<symbol overflow="visible" id="glyph0-1">
<path style="stroke:none;" d="M 1.109375 -8.234375 L 2.21875 -8.234375 L 2.21875 -0.578125 C 2.21875 0.421875 2.03125 1.144531 1.65625 1.59375 C 1.28125 2.039062 0.675781 2.265625 -0.15625 2.265625 L -0.578125 2.265625 L -0.578125 1.328125 L -0.234375 1.328125 C 0.253906 1.328125 0.597656 1.1875 0.796875 0.90625 C 1.003906 0.632812 1.109375 0.140625 1.109375 -0.578125 Z M 1.109375 -8.234375 "/>
</symbol>
<symbol overflow="visible" id="glyph0-2">
<path style="stroke:none;" d="M 3.875 -3.109375 C 3.050781 -3.109375 2.476562 -3.015625 2.15625 -2.828125 C 1.84375 -2.640625 1.6875 -2.316406 1.6875 -1.859375 C 1.6875 -1.503906 1.804688 -1.21875 2.046875 -1 C 2.285156 -0.789062 2.609375 -0.6875 3.015625 -0.6875 C 3.578125 -0.6875 4.023438 -0.882812 4.359375 -1.28125 C 4.703125 -1.6875 4.875 -2.21875 4.875 -2.875 L 4.875 -3.109375 Z M 5.890625 -3.53125 L 5.890625 0 L 4.875 0 L 4.875 -0.9375 C 4.644531 -0.5625 4.359375 -0.285156 4.015625 -0.109375 C 3.671875 0.0664062 3.25 0.15625 2.75 0.15625 C 2.113281 0.15625 1.609375 -0.0195312 1.234375 -0.375 C 0.859375 -0.726562 0.671875 -1.203125 0.671875 -1.796875 C 0.671875 -2.492188 0.90625 -3.019531 1.375 -3.375 C 1.84375 -3.726562 2.535156 -3.90625 3.453125 -3.90625 L 4.875 -3.90625 L 4.875 -4 C 4.875 -4.46875 4.71875 -4.828125 4.40625 -5.078125 C 4.101562 -5.335938 3.675781 -5.46875 3.125 -5.46875 C 2.769531 -5.46875 2.425781 -5.425781 2.09375 -5.34375 C 1.757812 -5.257812 1.4375 -5.128906 1.125 -4.953125 L 1.125 -5.890625 C 1.5 -6.035156 1.859375 -6.144531 2.203125 -6.21875 C 2.554688 -6.289062 2.898438 -6.328125 3.234375 -6.328125 C 4.128906 -6.328125 4.796875 -6.09375 5.234375 -5.625 C 5.671875 -5.164062 5.890625 -4.46875 5.890625 -3.53125 Z M 5.890625 -3.53125 "/>
</symbol>
<symbol overflow="visible" id="glyph0-3">
<path style="stroke:none;" d="M 1.109375 -8.234375 L 2.609375 -8.234375 L 6.265625 -1.34375 L 6.265625 -8.234375 L 7.34375 -8.234375 L 7.34375 0 L 5.84375 0 L 2.1875 -6.890625 L 2.1875 0 L 1.109375 0 Z M 1.109375 -8.234375 "/>
</symbol>
<symbol overflow="visible" id="glyph0-4">
<path style="stroke:none;" d="M 6.34375 -3.34375 L 6.34375 -2.84375 L 1.6875 -2.84375 C 1.726562 -2.144531 1.9375 -1.613281 2.3125 -1.25 C 2.6875 -0.882812 3.210938 -0.703125 3.890625 -0.703125 C 4.273438 -0.703125 4.648438 -0.75 5.015625 -0.84375 C 5.390625 -0.9375 5.753906 -1.082031 6.109375 -1.28125 L 6.109375 -0.3125 C 5.742188 -0.15625 5.367188 -0.0390625 4.984375 0.03125 C 4.609375 0.113281 4.222656 0.15625 3.828125 0.15625 C 2.835938 0.15625 2.054688 -0.128906 1.484375 -0.703125 C 0.910156 -1.273438 0.625 -2.050781 0.625 -3.03125 C 0.625 -4.039062 0.894531 -4.84375 1.4375 -5.4375 C 1.988281 -6.03125 2.726562 -6.328125 3.65625 -6.328125 C 4.476562 -6.328125 5.128906 -6.054688 5.609375 -5.515625 C 6.097656 -4.984375 6.34375 -4.257812 6.34375 -3.34375 Z M 5.328125 -3.640625 C 5.328125 -4.191406 5.171875 -4.632812 4.859375 -4.96875 C 4.554688 -5.300781 4.15625 -5.46875 3.65625 -5.46875 C 3.09375 -5.46875 2.640625 -5.304688 2.296875 -4.984375 C 1.960938 -4.660156 1.769531 -4.210938 1.71875 -3.640625 Z M 5.328125 -3.640625 "/>
</symbol>
<symbol overflow="visible" id="glyph0-5">
<path style="stroke:none;" d="M 1.0625 -6.171875 L 2.078125 -6.171875 L 2.078125 0 L 1.0625 0 Z M 1.0625 -8.578125 L 2.078125 -8.578125 L 2.078125 -7.296875 L 1.0625 -7.296875 Z M 1.0625 -8.578125 "/>
</symbol>
<symbol overflow="visible" id="glyph0-6">
<path style="stroke:none;" d="M 6.203125 -3.734375 L 6.203125 0 L 5.1875 0 L 5.1875 -3.703125 C 5.1875 -4.285156 5.070312 -4.71875 4.84375 -5 C 4.613281 -5.289062 4.269531 -5.4375 3.8125 -5.4375 C 3.269531 -5.4375 2.835938 -5.257812 2.515625 -4.90625 C 2.203125 -4.5625 2.046875 -4.085938 2.046875 -3.484375 L 2.046875 0 L 1.03125 0 L 1.03125 -6.171875 L 2.046875 -6.171875 L 2.046875 -5.21875 C 2.285156 -5.59375 2.566406 -5.867188 2.890625 -6.046875 C 3.222656 -6.234375 3.609375 -6.328125 4.046875 -6.328125 C 4.753906 -6.328125 5.289062 -6.109375 5.65625 -5.671875 C 6.019531 -5.234375 6.203125 -4.585938 6.203125 -3.734375 Z M 6.203125 -3.734375 "/>
</symbol>
<symbol overflow="visible" id="glyph0-7">
<path style="stroke:none;" d=""/>
</symbol>
<symbol overflow="visible" id="glyph0-8">
<path style="stroke:none;" d="M 8.265625 -5.5625 L 2.578125 -3.53125 L 8.265625 -1.515625 L 8.265625 -0.515625 L 1.203125 -3.078125 L 1.203125 -4 L 8.265625 -6.5625 Z M 8.265625 -5.5625 "/>
</symbol>
<symbol overflow="visible" id="glyph0-9">
<path style="stroke:none;" d="M 4.578125 -4.4375 C 5.117188 -4.320312 5.535156 -4.082031 5.828125 -3.71875 C 6.128906 -3.363281 6.28125 -2.921875 6.28125 -2.390625 C 6.28125 -1.578125 6 -0.945312 5.4375 -0.5 C 4.882812 -0.0625 4.09375 0.15625 3.0625 0.15625 C 2.71875 0.15625 2.359375 0.117188 1.984375 0.046875 C 1.617188 -0.015625 1.242188 -0.113281 0.859375 -0.25 L 0.859375 -1.328125 C 1.171875 -1.140625 1.507812 -1 1.875 -0.90625 C 2.238281 -0.820312 2.625 -0.78125 3.03125 -0.78125 C 3.726562 -0.78125 4.257812 -0.914062 4.625 -1.1875 C 4.988281 -1.46875 5.171875 -1.867188 5.171875 -2.390625 C 5.171875 -2.878906 5 -3.257812 4.65625 -3.53125 C 4.320312 -3.800781 3.851562 -3.9375 3.25 -3.9375 L 2.28125 -3.9375 L 2.28125 -4.859375 L 3.28125 -4.859375 C 3.832031 -4.859375 4.253906 -4.96875 4.546875 -5.1875 C 4.835938 -5.40625 4.984375 -5.722656 4.984375 -6.140625 C 4.984375 -6.554688 4.832031 -6.878906 4.53125 -7.109375 C 4.226562 -7.335938 3.800781 -7.453125 3.25 -7.453125 C 2.9375 -7.453125 2.601562 -7.414062 2.25 -7.34375 C 1.90625 -7.28125 1.523438 -7.175781 1.109375 -7.03125 L 1.109375 -8.03125 C 1.535156 -8.144531 1.929688 -8.234375 2.296875 -8.296875 C 2.671875 -8.359375 3.019531 -8.390625 3.34375 -8.390625 C 4.1875 -8.390625 4.851562 -8.195312 5.34375 -7.8125 C 5.84375 -7.425781 6.09375 -6.90625 6.09375 -6.25 C 6.09375 -5.789062 5.960938 -5.40625 5.703125 -5.09375 C 5.441406 -4.78125 5.066406 -4.5625 4.578125 -4.4375 Z M 4.578125 -4.4375 "/>
</symbol>
<symbol overflow="visible" id="glyph0-10">
<path style="stroke:none;" d="M 6.046875 -7.96875 L 6.046875 -6.875 C 5.617188 -7.082031 5.21875 -7.234375 4.84375 -7.328125 C 4.46875 -7.429688 4.109375 -7.484375 3.765625 -7.484375 C 3.160156 -7.484375 2.691406 -7.363281 2.359375 -7.125 C 2.023438 -6.894531 1.859375 -6.5625 1.859375 -6.125 C 1.859375 -5.757812 1.96875 -5.484375 2.1875 -5.296875 C 2.40625 -5.109375 2.820312 -4.957031 3.4375 -4.84375 L 4.109375 -4.703125 C 4.941406 -4.546875 5.554688 -4.269531 5.953125 -3.875 C 6.347656 -3.476562 6.546875 -2.941406 6.546875 -2.265625 C 6.546875 -1.472656 6.273438 -0.867188 5.734375 -0.453125 C 5.203125 -0.046875 4.421875 0.15625 3.390625 0.15625 C 2.992188 0.15625 2.578125 0.109375 2.140625 0.015625 C 1.703125 -0.0664062 1.25 -0.191406 0.78125 -0.359375 L 0.78125 -1.515625 C 1.226562 -1.253906 1.671875 -1.0625 2.109375 -0.9375 C 2.546875 -0.8125 2.972656 -0.75 3.390625 -0.75 C 4.023438 -0.75 4.515625 -0.875 4.859375 -1.125 C 5.203125 -1.375 5.375 -1.726562 5.375 -2.1875 C 5.375 -2.59375 5.25 -2.910156 5 -3.140625 C 4.757812 -3.367188 4.351562 -3.539062 3.78125 -3.65625 L 3.109375 -3.78125 C 2.273438 -3.945312 1.671875 -4.207031 1.296875 -4.5625 C 0.929688 -4.914062 0.75 -5.40625 0.75 -6.03125 C 0.75 -6.757812 1.003906 -7.332031 1.515625 -7.75 C 2.023438 -8.175781 2.734375 -8.390625 3.640625 -8.390625 C 4.023438 -8.390625 4.414062 -8.351562 4.8125 -8.28125 C 5.21875 -8.207031 5.628906 -8.101562 6.046875 -7.96875 Z M 6.046875 -7.96875 "/>
</symbol>
<symbol overflow="visible" id="glyph0-11">
<path style="stroke:none;" d="M 2.0625 -7.9375 L 2.0625 -6.171875 L 4.15625 -6.171875 L 4.15625 -5.390625 L 2.0625 -5.390625 L 2.0625 -2.03125 C 2.0625 -1.53125 2.128906 -1.207031 2.265625 -1.0625 C 2.410156 -0.914062 2.691406 -0.84375 3.109375 -0.84375 L 4.15625 -0.84375 L 4.15625 0 L 3.109375 0 C 2.328125 0 1.785156 -0.144531 1.484375 -0.4375 C 1.191406 -0.726562 1.046875 -1.257812 1.046875 -2.03125 L 1.046875 -5.390625 L 0.296875 -5.390625 L 0.296875 -6.171875 L 1.046875 -6.171875 L 1.046875 -7.9375 Z M 2.0625 -7.9375 "/>
</symbol>
<symbol overflow="visible" id="glyph0-12">
<path style="stroke:none;" d="M 4.640625 -5.234375 C 4.523438 -5.296875 4.398438 -5.34375 4.265625 -5.375 C 4.140625 -5.40625 3.992188 -5.421875 3.828125 -5.421875 C 3.253906 -5.421875 2.8125 -5.234375 2.5 -4.859375 C 2.195312 -4.484375 2.046875 -3.945312 2.046875 -3.25 L 2.046875 0 L 1.03125 0 L 1.03125 -6.171875 L 2.046875 -6.171875 L 2.046875 -5.21875 C 2.253906 -5.59375 2.53125 -5.867188 2.875 -6.046875 C 3.21875 -6.234375 3.632812 -6.328125 4.125 -6.328125 C 4.195312 -6.328125 4.273438 -6.320312 4.359375 -6.3125 C 4.441406 -6.300781 4.535156 -6.285156 4.640625 -6.265625 Z M 4.640625 -5.234375 "/>
</symbol>
<symbol overflow="visible" id="glyph0-13">
<path style="stroke:none;" d="M 1.109375 -8.234375 L 6.3125 -8.234375 L 6.3125 -7.296875 L 2.21875 -7.296875 L 2.21875 -4.859375 L 6.140625 -4.859375 L 6.140625 -3.921875 L 2.21875 -3.921875 L 2.21875 -0.9375 L 6.421875 -0.9375 L 6.421875 0 L 1.109375 0 Z M 1.109375 -8.234375 "/>
</symbol>
<symbol overflow="visible" id="glyph0-14">
<path style="stroke:none;" d="M 5.125 -5.234375 L 5.125 -8.578125 L 6.140625 -8.578125 L 6.140625 0 L 5.125 0 L 5.125 -0.921875 C 4.914062 -0.554688 4.644531 -0.285156 4.3125 -0.109375 C 3.988281 0.0664062 3.601562 0.15625 3.15625 0.15625 C 2.40625 0.15625 1.796875 -0.140625 1.328125 -0.734375 C 0.859375 -1.328125 0.625 -2.109375 0.625 -3.078125 C 0.625 -4.054688 0.859375 -4.84375 1.328125 -5.4375 C 1.796875 -6.03125 2.40625 -6.328125 3.15625 -6.328125 C 3.601562 -6.328125 3.988281 -6.238281 4.3125 -6.0625 C 4.644531 -5.882812 4.914062 -5.609375 5.125 -5.234375 Z M 1.671875 -3.078125 C 1.671875 -2.335938 1.820312 -1.753906 2.125 -1.328125 C 2.4375 -0.898438 2.859375 -0.6875 3.390625 -0.6875 C 3.929688 -0.6875 4.351562 -0.898438 4.65625 -1.328125 C 4.96875 -1.753906 5.125 -2.335938 5.125 -3.078125 C 5.125 -3.828125 4.96875 -4.414062 4.65625 -4.84375 C 4.351562 -5.269531 3.929688 -5.484375 3.390625 -5.484375 C 2.859375 -5.484375 2.4375 -5.269531 2.125 -4.84375 C 1.820312 -4.414062 1.671875 -3.828125 1.671875 -3.078125 Z M 1.671875 -3.078125 "/>
</symbol>
<symbol overflow="visible" id="glyph0-15">
<path style="stroke:none;" d="M 0.953125 -2.4375 L 0.953125 -6.171875 L 1.96875 -6.171875 L 1.96875 -2.484375 C 1.96875 -1.890625 2.082031 -1.445312 2.3125 -1.15625 C 2.539062 -0.863281 2.882812 -0.71875 3.34375 -0.71875 C 3.894531 -0.71875 4.328125 -0.890625 4.640625 -1.234375 C 4.960938 -1.585938 5.125 -2.066406 5.125 -2.671875 L 5.125 -6.171875 L 6.140625 -6.171875 L 6.140625 0 L 5.125 0 L 5.125 -0.953125 C 4.875 -0.578125 4.582031 -0.296875 4.25 -0.109375 C 3.925781 0.0664062 3.550781 0.15625 3.125 0.15625 C 2.414062 0.15625 1.875 -0.0625 1.5 -0.5 C 1.132812 -0.9375 0.953125 -1.582031 0.953125 -2.4375 Z M 3.515625 -6.328125 Z M 3.515625 -6.328125 "/>
</symbol>
<symbol overflow="visible" id="glyph0-16">
<path style="stroke:none;" d="M 2.046875 -0.921875 L 2.046875 2.34375 L 1.03125 2.34375 L 1.03125 -6.171875 L 2.046875 -6.171875 L 2.046875 -5.234375 C 2.253906 -5.609375 2.519531 -5.882812 2.84375 -6.0625 C 3.175781 -6.238281 3.566406 -6.328125 4.015625 -6.328125 C 4.765625 -6.328125 5.375 -6.03125 5.84375 -5.4375 C 6.3125 -4.84375 6.546875 -4.054688 6.546875 -3.078125 C 6.546875 -2.109375 6.3125 -1.328125 5.84375 -0.734375 C 5.375 -0.140625 4.765625 0.15625 4.015625 0.15625 C 3.566406 0.15625 3.175781 0.0664062 2.84375 -0.109375 C 2.519531 -0.285156 2.253906 -0.554688 2.046875 -0.921875 Z M 5.5 -3.078125 C 5.5 -3.828125 5.34375 -4.414062 5.03125 -4.84375 C 4.726562 -5.269531 4.304688 -5.484375 3.765625 -5.484375 C 3.234375 -5.484375 2.8125 -5.269531 2.5 -4.84375 C 2.195312 -4.414062 2.046875 -3.828125 2.046875 -3.078125 C 2.046875 -2.335938 2.195312 -1.753906 2.5 -1.328125 C 2.8125 -0.898438 3.234375 -0.6875 3.765625 -0.6875 C 4.304688 -0.6875 4.726562 -0.898438 5.03125 -1.328125 C 5.34375 -1.753906 5.5 -2.335938 5.5 -3.078125 Z M 5.5 -3.078125 "/>
</symbol>
<symbol overflow="visible" id="glyph0-17">
<path style="stroke:none;" d="M 3.453125 -5.46875 C 2.910156 -5.46875 2.476562 -5.253906 2.15625 -4.828125 C 1.84375 -4.398438 1.6875 -3.816406 1.6875 -3.078125 C 1.6875 -2.335938 1.84375 -1.753906 2.15625 -1.328125 C 2.476562 -0.910156 2.910156 -0.703125 3.453125 -0.703125 C 3.992188 -0.703125 4.421875 -0.914062 4.734375 -1.34375 C 5.054688 -1.769531 5.21875 -2.347656 5.21875 -3.078125 C 5.21875 -3.816406 5.054688 -4.398438 4.734375 -4.828125 C 4.421875 -5.253906 3.992188 -5.46875 3.453125 -5.46875 Z M 3.453125 -6.328125 C 4.335938 -6.328125 5.03125 -6.039062 5.53125 -5.46875 C 6.039062 -4.894531 6.296875 -4.097656 6.296875 -3.078125 C 6.296875 -2.066406 6.039062 -1.273438 5.53125 -0.703125 C 5.03125 -0.128906 4.335938 0.15625 3.453125 0.15625 C 2.566406 0.15625 1.875 -0.128906 1.375 -0.703125 C 0.875 -1.273438 0.625 -2.066406 0.625 -3.078125 C 0.625 -4.097656 0.875 -4.894531 1.375 -5.46875 C 1.875 -6.039062 2.566406 -6.328125 3.453125 -6.328125 Z M 3.453125 -6.328125 "/>
</symbol>
<symbol overflow="visible" id="glyph0-18">
<path style="stroke:none;" d="M 5.125 -3.15625 C 5.125 -3.894531 4.972656 -4.46875 4.671875 -4.875 C 4.367188 -5.28125 3.941406 -5.484375 3.390625 -5.484375 C 2.847656 -5.484375 2.425781 -5.28125 2.125 -4.875 C 1.820312 -4.46875 1.671875 -3.894531 1.671875 -3.15625 C 1.671875 -2.425781 1.820312 -1.859375 2.125 -1.453125 C 2.425781 -1.046875 2.847656 -0.84375 3.390625 -0.84375 C 3.941406 -0.84375 4.367188 -1.046875 4.671875 -1.453125 C 4.972656 -1.859375 5.125 -2.425781 5.125 -3.15625 Z M 6.140625 -0.765625 C 6.140625 0.285156 5.90625 1.066406 5.4375 1.578125 C 4.976562 2.085938 4.265625 2.34375 3.296875 2.34375 C 2.941406 2.34375 2.601562 2.316406 2.28125 2.265625 C 1.96875 2.210938 1.664062 2.132812 1.375 2.03125 L 1.375 1.03125 C 1.664062 1.195312 1.957031 1.316406 2.25 1.390625 C 2.539062 1.472656 2.835938 1.515625 3.140625 1.515625 C 3.804688 1.515625 4.300781 1.335938 4.625 0.984375 C 4.957031 0.640625 5.125 0.117188 5.125 -0.578125 L 5.125 -1.09375 C 4.914062 -0.726562 4.644531 -0.453125 4.3125 -0.265625 C 3.988281 -0.0859375 3.601562 0 3.15625 0 C 2.394531 0 1.78125 -0.285156 1.3125 -0.859375 C 0.851562 -1.441406 0.625 -2.207031 0.625 -3.15625 C 0.625 -4.113281 0.851562 -4.878906 1.3125 -5.453125 C 1.78125 -6.035156 2.394531 -6.328125 3.15625 -6.328125 C 3.601562 -6.328125 3.988281 -6.234375 4.3125 -6.046875 C 4.644531 -5.867188 4.914062 -5.597656 5.125 -5.234375 L 5.125 -6.171875 L 6.140625 -6.171875 Z M 6.140625 -0.765625 "/>
</symbol>
<symbol overflow="visible" id="glyph0-19">
<path style="stroke:none;" d="M 5.875 -4.984375 C 6.125 -5.441406 6.425781 -5.78125 6.78125 -6 C 7.132812 -6.21875 7.550781 -6.328125 8.03125 -6.328125 C 8.675781 -6.328125 9.171875 -6.097656 9.515625 -5.640625 C 9.867188 -5.191406 10.046875 -4.554688 10.046875 -3.734375 L 10.046875 0 L 9.03125 0 L 9.03125 -3.703125 C 9.03125 -4.285156 8.921875 -4.71875 8.703125 -5 C 8.492188 -5.289062 8.175781 -5.4375 7.75 -5.4375 C 7.226562 -5.4375 6.8125 -5.257812 6.5 -4.90625 C 6.195312 -4.5625 6.046875 -4.085938 6.046875 -3.484375 L 6.046875 0 L 5.03125 0 L 5.03125 -3.703125 C 5.03125 -4.296875 4.921875 -4.734375 4.703125 -5.015625 C 4.492188 -5.296875 4.171875 -5.4375 3.734375 -5.4375 C 3.222656 -5.4375 2.8125 -5.257812 2.5 -4.90625 C 2.195312 -4.5625 2.046875 -4.085938 2.046875 -3.484375 L 2.046875 0 L 1.03125 0 L 1.03125 -6.171875 L 2.046875 -6.171875 L 2.046875 -5.21875 C 2.273438 -5.59375 2.550781 -5.867188 2.875 -6.046875 C 3.195312 -6.234375 3.582031 -6.328125 4.03125 -6.328125 C 4.476562 -6.328125 4.859375 -6.210938 5.171875 -5.984375 C 5.492188 -5.753906 5.726562 -5.421875 5.875 -4.984375 Z M 5.875 -4.984375 "/>
</symbol>
<symbol overflow="visible" id="glyph0-20">
<path style="stroke:none;" d="M 3.5 -8.578125 C 3.007812 -7.722656 2.644531 -6.882812 2.40625 -6.0625 C 2.164062 -5.238281 2.046875 -4.398438 2.046875 -3.546875 C 2.046875 -2.691406 2.164062 -1.847656 2.40625 -1.015625 C 2.644531 -0.191406 3.007812 0.640625 3.5 1.484375 L 2.625 1.484375 C 2.070312 0.617188 1.65625 -0.226562 1.375 -1.0625 C 1.101562 -1.894531 0.96875 -2.722656 0.96875 -3.546875 C 0.96875 -4.367188 1.101562 -5.191406 1.375 -6.015625 C 1.644531 -6.847656 2.0625 -7.703125 2.625 -8.578125 Z M 3.5 -8.578125 "/>
</symbol>
<symbol overflow="visible" id="glyph0-21">
<path style="stroke:none;" d="M 4.1875 -8.578125 L 4.1875 -7.734375 L 3.21875 -7.734375 C 2.851562 -7.734375 2.597656 -7.660156 2.453125 -7.515625 C 2.316406 -7.367188 2.25 -7.101562 2.25 -6.71875 L 2.25 -6.171875 L 3.921875 -6.171875 L 3.921875 -5.390625 L 2.25 -5.390625 L 2.25 0 L 1.234375 0 L 1.234375 -5.390625 L 0.265625 -5.390625 L 0.265625 -6.171875 L 1.234375 -6.171875 L 1.234375 -6.609375 C 1.234375 -7.296875 1.390625 -7.796875 1.703125 -8.109375 C 2.023438 -8.421875 2.535156 -8.578125 3.234375 -8.578125 Z M 4.1875 -8.578125 "/>
</symbol>
<symbol overflow="visible" id="glyph0-22">
<path style="stroke:none;" d="M 5.5 -3.078125 C 5.5 -3.828125 5.34375 -4.414062 5.03125 -4.84375 C 4.726562 -5.269531 4.304688 -5.484375 3.765625 -5.484375 C 3.234375 -5.484375 2.8125 -5.269531 2.5 -4.84375 C 2.195312 -4.414062 2.046875 -3.828125 2.046875 -3.078125 C 2.046875 -2.335938 2.195312 -1.753906 2.5 -1.328125 C 2.8125 -0.898438 3.234375 -0.6875 3.765625 -0.6875 C 4.304688 -0.6875 4.726562 -0.898438 5.03125 -1.328125 C 5.34375 -1.753906 5.5 -2.335938 5.5 -3.078125 Z M 2.046875 -5.234375 C 2.253906 -5.609375 2.519531 -5.882812 2.84375 -6.0625 C 3.175781 -6.238281 3.566406 -6.328125 4.015625 -6.328125 C 4.765625 -6.328125 5.375 -6.03125 5.84375 -5.4375 C 6.3125 -4.84375 6.546875 -4.054688 6.546875 -3.078125 C 6.546875 -2.109375 6.3125 -1.328125 5.84375 -0.734375 C 5.375 -0.140625 4.765625 0.15625 4.015625 0.15625 C 3.566406 0.15625 3.175781 0.0664062 2.84375 -0.109375 C 2.519531 -0.285156 2.253906 -0.554688 2.046875 -0.921875 L 2.046875 0 L 1.03125 0 L 1.03125 -8.578125 L 2.046875 -8.578125 Z M 2.046875 -5.234375 "/>
</symbol>
<symbol overflow="visible" id="glyph0-23">
<path style="stroke:none;" d="M 0.90625 -8.578125 L 1.78125 -8.578125 C 2.332031 -7.703125 2.742188 -6.847656 3.015625 -6.015625 C 3.296875 -5.191406 3.4375 -4.367188 3.4375 -3.546875 C 3.4375 -2.722656 3.296875 -1.894531 3.015625 -1.0625 C 2.742188 -0.226562 2.332031 0.617188 1.78125 1.484375 L 0.90625 1.484375 C 1.394531 0.640625 1.757812 -0.191406 2 -1.015625 C 2.238281 -1.847656 2.359375 -2.691406 2.359375 -3.546875 C 2.359375 -4.398438 2.238281 -5.238281 2 -6.0625 C 1.757812 -6.882812 1.394531 -7.722656 0.90625 -8.578125 Z M 0.90625 -8.578125 "/>
</symbol>
<symbol overflow="visible" id="glyph1-0">
<path style="stroke:none;" d="M 0.5625 2 L 0.5625 -7.953125 L 6.203125 -7.953125 L 6.203125 2 Z M 1.203125 1.359375 L 5.578125 1.359375 L 5.578125 -7.328125 L 1.203125 -7.328125 Z M 1.203125 1.359375 "/>
</symbol>
<symbol overflow="visible" id="glyph1-1">
<path style="stroke:none;" d="M 5 -5.984375 L 5 -5.03125 C 4.707031 -5.175781 4.40625 -5.285156 4.09375 -5.359375 C 3.789062 -5.429688 3.472656 -5.46875 3.140625 -5.46875 C 2.640625 -5.46875 2.265625 -5.390625 2.015625 -5.234375 C 1.765625 -5.078125 1.640625 -4.847656 1.640625 -4.546875 C 1.640625 -4.304688 1.726562 -4.117188 1.90625 -3.984375 C 2.082031 -3.859375 2.441406 -3.734375 2.984375 -3.609375 L 3.34375 -3.53125 C 4.0625 -3.375 4.570312 -3.15625 4.875 -2.875 C 5.175781 -2.59375 5.328125 -2.203125 5.328125 -1.703125 C 5.328125 -1.128906 5.097656 -0.675781 4.640625 -0.34375 C 4.191406 -0.0078125 3.570312 0.15625 2.78125 0.15625 C 2.445312 0.15625 2.097656 0.125 1.734375 0.0625 C 1.378906 0 1.003906 -0.09375 0.609375 -0.21875 L 0.609375 -1.265625 C 0.984375 -1.078125 1.351562 -0.929688 1.71875 -0.828125 C 2.082031 -0.734375 2.441406 -0.6875 2.796875 -0.6875 C 3.273438 -0.6875 3.640625 -0.765625 3.890625 -0.921875 C 4.148438 -1.085938 4.28125 -1.320312 4.28125 -1.625 C 4.28125 -1.894531 4.1875 -2.101562 4 -2.25 C 3.820312 -2.40625 3.414062 -2.550781 2.78125 -2.6875 L 2.4375 -2.765625 C 1.8125 -2.898438 1.359375 -3.101562 1.078125 -3.375 C 0.796875 -3.644531 0.65625 -4.019531 0.65625 -4.5 C 0.65625 -5.082031 0.859375 -5.53125 1.265625 -5.84375 C 1.679688 -6.15625 2.269531 -6.3125 3.03125 -6.3125 C 3.40625 -6.3125 3.753906 -6.285156 4.078125 -6.234375 C 4.410156 -6.179688 4.71875 -6.097656 5 -5.984375 Z M 5 -5.984375 "/>
</symbol>
<symbol overflow="visible" id="glyph1-2">
<path style="stroke:none;" d="M 6.34375 -3.34375 L 6.34375 -2.84375 L 1.6875 -2.84375 C 1.726562 -2.144531 1.9375 -1.613281 2.3125 -1.25 C 2.6875 -0.882812 3.210938 -0.703125 3.890625 -0.703125 C 4.273438 -0.703125 4.648438 -0.75 5.015625 -0.84375 C 5.378906 -0.9375 5.742188 -1.078125 6.109375 -1.265625 L 6.109375 -0.3125 C 5.742188 -0.15625 5.367188 -0.0390625 4.984375 0.03125 C 4.597656 0.113281 4.210938 0.15625 3.828125 0.15625 C 2.835938 0.15625 2.054688 -0.128906 1.484375 -0.703125 C 0.910156 -1.273438 0.625 -2.050781 0.625 -3.03125 C 0.625 -4.03125 0.894531 -4.828125 1.4375 -5.421875 C 1.988281 -6.015625 2.722656 -6.3125 3.640625 -6.3125 C 4.472656 -6.3125 5.128906 -6.046875 5.609375 -5.515625 C 6.097656 -4.984375 6.34375 -4.257812 6.34375 -3.34375 Z M 5.328125 -3.640625 C 5.316406 -4.191406 5.160156 -4.628906 4.859375 -4.953125 C 4.554688 -5.285156 4.15625 -5.453125 3.65625 -5.453125 C 3.09375 -5.453125 2.640625 -5.289062 2.296875 -4.96875 C 1.960938 -4.65625 1.769531 -4.207031 1.71875 -3.625 Z M 5.328125 -3.640625 "/>
</symbol>
<symbol overflow="visible" id="glyph1-3">
<path style="stroke:none;" d="M 2.0625 -7.921875 L 2.0625 -6.171875 L 4.15625 -6.171875 L 4.15625 -5.375 L 2.0625 -5.375 L 2.0625 -2.03125 C 2.0625 -1.53125 2.128906 -1.207031 2.265625 -1.0625 C 2.410156 -0.914062 2.691406 -0.84375 3.109375 -0.84375 L 4.15625 -0.84375 L 4.15625 0 L 3.109375 0 C 2.328125 0 1.785156 -0.144531 1.484375 -0.4375 C 1.191406 -0.726562 1.046875 -1.257812 1.046875 -2.03125 L 1.046875 -5.375 L 0.296875 -5.375 L 0.296875 -6.171875 L 1.046875 -6.171875 L 1.046875 -7.921875 Z M 2.0625 -7.921875 "/>
</symbol>
<symbol overflow="visible" id="glyph1-4">
<path style="stroke:none;" d="M 0.625 -6.171875 L 5.4375 -6.171875 L 5.4375 -5.25 L 1.625 -0.8125 L 5.4375 -0.8125 L 5.4375 0 L 0.484375 0 L 0.484375 -0.921875 L 4.296875 -5.359375 L 0.625 -5.359375 Z M 0.625 -6.171875 "/>
</symbol>
<symbol overflow="visible" id="glyph1-5">
<path style="stroke:none;" d=""/>
</symbol>
<symbol overflow="visible" id="glyph1-6">
<path style="stroke:none;" d="M 1.0625 -6.171875 L 2.078125 -6.171875 L 2.078125 0 L 1.0625 0 Z M 1.0625 -8.578125 L 2.078125 -8.578125 L 2.078125 -7.28125 L 1.0625 -7.28125 Z M 1.0625 -8.578125 "/>
</symbol>
<symbol overflow="visible" id="glyph1-7">
<path style="stroke:none;" d="M 3.859375 -3.09375 C 3.046875 -3.09375 2.476562 -3 2.15625 -2.8125 C 1.84375 -2.632812 1.6875 -2.316406 1.6875 -1.859375 C 1.6875 -1.503906 1.804688 -1.21875 2.046875 -1 C 2.285156 -0.789062 2.609375 -0.6875 3.015625 -0.6875 C 3.578125 -0.6875 4.023438 -0.882812 4.359375 -1.28125 C 4.703125 -1.6875 4.875 -2.21875 4.875 -2.875 L 4.875 -3.09375 Z M 5.890625 -3.515625 L 5.890625 0 L 4.875 0 L 4.875 -0.9375 C 4.644531 -0.5625 4.359375 -0.285156 4.015625 -0.109375 C 3.671875 0.0664062 3.25 0.15625 2.75 0.15625 C 2.113281 0.15625 1.609375 -0.0195312 1.234375 -0.375 C 0.859375 -0.726562 0.671875 -1.203125 0.671875 -1.796875 C 0.671875 -2.492188 0.90625 -3.015625 1.375 -3.359375 C 1.84375 -3.710938 2.535156 -3.890625 3.453125 -3.890625 L 4.875 -3.890625 L 4.875 -4 C 4.875 -4.457031 4.71875 -4.8125 4.40625 -5.0625 C 4.101562 -5.320312 3.675781 -5.453125 3.125 -5.453125 C 2.769531 -5.453125 2.425781 -5.410156 2.09375 -5.328125 C 1.757812 -5.242188 1.4375 -5.117188 1.125 -4.953125 L 1.125 -5.890625 C 1.5 -6.035156 1.859375 -6.140625 2.203125 -6.203125 C 2.554688 -6.273438 2.898438 -6.3125 3.234375 -6.3125 C 4.117188 -6.3125 4.78125 -6.082031 5.21875 -5.625 C 5.664062 -5.164062 5.890625 -4.460938 5.890625 -3.515625 Z M 5.890625 -3.515625 "/>
</symbol>
<symbol overflow="visible" id="glyph1-8">
<path style="stroke:none;" d="M 0.953125 -2.4375 L 0.953125 -6.171875 L 1.96875 -6.171875 L 1.96875 -2.46875 C 1.96875 -1.882812 2.082031 -1.445312 2.3125 -1.15625 C 2.539062 -0.863281 2.882812 -0.71875 3.34375 -0.71875 C 3.882812 -0.71875 4.3125 -0.890625 4.625 -1.234375 C 4.945312 -1.585938 5.109375 -2.066406 5.109375 -2.671875 L 5.109375 -6.171875 L 6.125 -6.171875 L 6.125 0 L 5.109375 0 L 5.109375 -0.953125 C 4.867188 -0.578125 4.582031 -0.296875 4.25 -0.109375 C 3.925781 0.0664062 3.550781 0.15625 3.125 0.15625 C 2.414062 0.15625 1.875 -0.0625 1.5 -0.5 C 1.132812 -0.9375 0.953125 -1.582031 0.953125 -2.4375 Z M 3.515625 -6.3125 Z M 3.515625 -6.3125 "/>
</symbol>
<symbol overflow="visible" id="glyph1-9">
<path style="stroke:none;" d="M 4.1875 -8.578125 L 4.1875 -7.734375 L 3.21875 -7.734375 C 2.851562 -7.734375 2.597656 -7.65625 2.453125 -7.5 C 2.316406 -7.351562 2.25 -7.09375 2.25 -6.71875 L 2.25 -6.171875 L 3.921875 -6.171875 L 3.921875 -5.375 L 2.25 -5.375 L 2.25 0 L 1.234375 0 L 1.234375 -5.375 L 0.265625 -5.375 L 0.265625 -6.171875 L 1.234375 -6.171875 L 1.234375 -6.59375 C 1.234375 -7.28125 1.390625 -7.78125 1.703125 -8.09375 C 2.023438 -8.414062 2.535156 -8.578125 3.234375 -8.578125 Z M 4.1875 -8.578125 "/>
</symbol>
<symbol overflow="visible" id="glyph1-10">
<path style="stroke:none;" d="M 3.59375 -7.484375 C 3.019531 -7.484375 2.585938 -7.203125 2.296875 -6.640625 C 2.003906 -6.078125 1.859375 -5.234375 1.859375 -4.109375 C 1.859375 -2.972656 2.003906 -2.125 2.296875 -1.5625 C 2.585938 -1 3.019531 -0.71875 3.59375 -0.71875 C 4.164062 -0.71875 4.59375 -1 4.875 -1.5625 C 5.164062 -2.125 5.3125 -2.972656 5.3125 -4.109375 C 5.3125 -5.234375 5.164062 -6.078125 4.875 -6.640625 C 4.59375 -7.203125 4.164062 -7.484375 3.59375 -7.484375 Z M 3.59375 -8.375 C 4.507812 -8.375 5.207031 -8.007812 5.6875 -7.28125 C 6.175781 -6.550781 6.421875 -5.492188 6.421875 -4.109375 C 6.421875 -2.722656 6.175781 -1.664062 5.6875 -0.9375 C 5.207031 -0.207031 4.507812 0.15625 3.59375 0.15625 C 2.664062 0.15625 1.957031 -0.207031 1.46875 -0.9375 C 0.988281 -1.664062 0.75 -2.722656 0.75 -4.109375 C 0.75 -5.492188 0.988281 -6.550781 1.46875 -7.28125 C 1.957031 -8.007812 2.664062 -8.375 3.59375 -8.375 Z M 3.59375 -8.375 "/>
</symbol>
<symbol overflow="visible" id="glyph1-11">
<path style="stroke:none;" d="M 4.640625 -5.21875 C 4.523438 -5.289062 4.398438 -5.34375 4.265625 -5.375 C 4.128906 -5.40625 3.984375 -5.421875 3.828125 -5.421875 C 3.253906 -5.421875 2.8125 -5.234375 2.5 -4.859375 C 2.195312 -4.484375 2.046875 -3.945312 2.046875 -3.25 L 2.046875 0 L 1.03125 0 L 1.03125 -6.171875 L 2.046875 -6.171875 L 2.046875 -5.21875 C 2.253906 -5.582031 2.53125 -5.851562 2.875 -6.03125 C 3.21875 -6.21875 3.632812 -6.3125 4.125 -6.3125 C 4.1875 -6.3125 4.257812 -6.304688 4.34375 -6.296875 C 4.4375 -6.296875 4.53125 -6.285156 4.625 -6.265625 Z M 4.640625 -5.21875 "/>
</symbol>
<symbol overflow="visible" id="glyph1-12">
<path style="stroke:none;" d="M 6.1875 -3.71875 L 6.1875 0 L 5.171875 0 L 5.171875 -3.6875 C 5.171875 -4.269531 5.054688 -4.707031 4.828125 -5 C 4.609375 -5.289062 4.269531 -5.4375 3.8125 -5.4375 C 3.257812 -5.4375 2.828125 -5.257812 2.515625 -4.90625 C 2.203125 -4.5625 2.046875 -4.085938 2.046875 -3.484375 L 2.046875 0 L 1.03125 0 L 1.03125 -8.578125 L 2.046875 -8.578125 L 2.046875 -5.21875 C 2.285156 -5.582031 2.566406 -5.851562 2.890625 -6.03125 C 3.222656 -6.21875 3.601562 -6.3125 4.03125 -6.3125 C 4.738281 -6.3125 5.273438 -6.09375 5.640625 -5.65625 C 6.003906 -5.21875 6.1875 -4.570312 6.1875 -3.71875 Z M 6.1875 -3.71875 "/>
</symbol>
<symbol overflow="visible" id="glyph1-13">
<path style="stroke:none;" d="M 3.453125 -5.453125 C 2.910156 -5.453125 2.476562 -5.238281 2.15625 -4.8125 C 1.84375 -4.394531 1.6875 -3.816406 1.6875 -3.078125 C 1.6875 -2.335938 1.84375 -1.753906 2.15625 -1.328125 C 2.476562 -0.910156 2.910156 -0.703125 3.453125 -0.703125 C 3.992188 -0.703125 4.421875 -0.914062 4.734375 -1.34375 C 5.054688 -1.769531 5.21875 -2.347656 5.21875 -3.078125 C 5.21875 -3.804688 5.054688 -4.382812 4.734375 -4.8125 C 4.421875 -5.238281 3.992188 -5.453125 3.453125 -5.453125 Z M 3.453125 -6.3125 C 4.335938 -6.3125 5.03125 -6.023438 5.53125 -5.453125 C 6.03125 -4.878906 6.28125 -4.085938 6.28125 -3.078125 C 6.28125 -2.066406 6.03125 -1.273438 5.53125 -0.703125 C 5.03125 -0.128906 4.335938 0.15625 3.453125 0.15625 C 2.566406 0.15625 1.875 -0.128906 1.375 -0.703125 C 0.875 -1.273438 0.625 -2.066406 0.625 -3.078125 C 0.625 -4.085938 0.875 -4.878906 1.375 -5.453125 C 1.875 -6.023438 2.566406 -6.3125 3.453125 -6.3125 Z M 3.984375 -8.546875 L 5.09375 -8.546875 L 5.09375 -7.4375 L 3.984375 -7.4375 Z M 1.828125 -8.546875 L 2.9375 -8.546875 L 2.9375 -7.4375 L 1.828125 -7.4375 Z M 1.828125 -8.546875 "/>
</symbol>
<symbol overflow="visible" id="glyph1-14">
<path style="stroke:none;" d="M 5.859375 -4.984375 C 6.117188 -5.441406 6.421875 -5.773438 6.765625 -5.984375 C 7.117188 -6.203125 7.535156 -6.3125 8.015625 -6.3125 C 8.660156 -6.3125 9.15625 -6.085938 9.5 -5.640625 C 9.851562 -5.191406 10.03125 -4.550781 10.03125 -3.71875 L 10.03125 0 L 9.015625 0 L 9.015625 -3.6875 C 9.015625 -4.28125 8.910156 -4.71875 8.703125 -5 C 8.492188 -5.289062 8.171875 -5.4375 7.734375 -5.4375 C 7.210938 -5.4375 6.796875 -5.257812 6.484375 -4.90625 C 6.179688 -4.5625 6.03125 -4.085938 6.03125 -3.484375 L 6.03125 0 L 5.015625 0 L 5.015625 -3.6875 C 5.015625 -4.28125 4.910156 -4.71875 4.703125 -5 C 4.492188 -5.289062 4.171875 -5.4375 3.734375 -5.4375 C 3.210938 -5.4375 2.800781 -5.257812 2.5 -4.90625 C 2.195312 -4.5625 2.046875 -4.085938 2.046875 -3.484375 L 2.046875 0 L 1.03125 0 L 1.03125 -6.171875 L 2.046875 -6.171875 L 2.046875 -5.21875 C 2.273438 -5.59375 2.550781 -5.867188 2.875 -6.046875 C 3.195312 -6.222656 3.582031 -6.3125 4.03125 -6.3125 C 4.476562 -6.3125 4.859375 -6.195312 5.171875 -5.96875 C 5.484375 -5.75 5.710938 -5.421875 5.859375 -4.984375 Z M 5.859375 -4.984375 "/>
</symbol>
<symbol overflow="visible" id="glyph1-15">
<path style="stroke:none;" d="M 1.40625 -0.9375 L 3.21875 -0.9375 L 3.21875 -7.203125 L 1.234375 -6.8125 L 1.234375 -7.828125 L 3.203125 -8.21875 L 4.3125 -8.21875 L 4.3125 -0.9375 L 6.140625 -0.9375 L 6.140625 0 L 1.40625 0 Z M 1.40625 -0.9375 "/>
</symbol>
<symbol overflow="visible" id="glyph1-16">
<path style="stroke:none;" d="M 3.234375 0 L 0.09375 -8.21875 L 1.25 -8.21875 L 3.859375 -1.296875 L 6.46875 -8.21875 L 7.625 -8.21875 L 4.484375 0 Z M 3.234375 0 "/>
</symbol>
<symbol overflow="visible" id="glyph1-17">
<path style="stroke:none;" d="M 0.46875 -6.171875 L 1.484375 -6.171875 L 2.75 -1.359375 L 4.015625 -6.171875 L 5.21875 -6.171875 L 6.484375 -1.359375 L 7.734375 -6.171875 L 8.75 -6.171875 L 7.140625 0 L 5.9375 0 L 4.609375 -5.0625 L 3.28125 0 L 2.09375 0 Z M 0.46875 -6.171875 "/>
</symbol>
<symbol overflow="visible" id="glyph1-18">
<path style="stroke:none;" d="M 6.1875 -3.71875 L 6.1875 0 L 5.171875 0 L 5.171875 -3.6875 C 5.171875 -4.269531 5.054688 -4.707031 4.828125 -5 C 4.609375 -5.289062 4.269531 -5.4375 3.8125 -5.4375 C 3.257812 -5.4375 2.828125 -5.257812 2.515625 -4.90625 C 2.203125 -4.5625 2.046875 -4.085938 2.046875 -3.484375 L 2.046875 0 L 1.03125 0 L 1.03125 -6.171875 L 2.046875 -6.171875 L 2.046875 -5.21875 C 2.285156 -5.582031 2.566406 -5.851562 2.890625 -6.03125 C 3.222656 -6.21875 3.601562 -6.3125 4.03125 -6.3125 C 4.738281 -6.3125 5.273438 -6.09375 5.640625 -5.65625 C 6.003906 -5.21875 6.1875 -4.570312 6.1875 -3.71875 Z M 6.1875 -3.71875 "/>
</symbol>
<symbol overflow="visible" id="glyph1-19">
<path style="stroke:none;" d="M 5.125 -5.234375 L 5.125 -8.578125 L 6.140625 -8.578125 L 6.140625 0 L 5.125 0 L 5.125 -0.921875 C 4.90625 -0.554688 4.632812 -0.285156 4.3125 -0.109375 C 3.988281 0.0664062 3.597656 0.15625 3.140625 0.15625 C 2.398438 0.15625 1.796875 -0.140625 1.328125 -0.734375 C 0.859375 -1.328125 0.625 -2.109375 0.625 -3.078125 C 0.625 -4.046875 0.859375 -4.828125 1.328125 -5.421875 C 1.796875 -6.015625 2.398438 -6.3125 3.140625 -6.3125 C 3.597656 -6.3125 3.988281 -6.222656 4.3125 -6.046875 C 4.632812 -5.867188 4.90625 -5.597656 5.125 -5.234375 Z M 1.671875 -3.078125 C 1.671875 -2.335938 1.820312 -1.753906 2.125 -1.328125 C 2.4375 -0.898438 2.859375 -0.6875 3.390625 -0.6875 C 3.929688 -0.6875 4.351562 -0.898438 4.65625 -1.328125 C 4.96875 -1.753906 5.125 -2.335938 5.125 -3.078125 C 5.125 -3.828125 4.96875 -4.410156 4.65625 -4.828125 C 4.351562 -5.253906 3.929688 -5.46875 3.390625 -5.46875 C 2.859375 -5.46875 2.4375 -5.253906 2.125 -4.828125 C 1.820312 -4.410156 1.671875 -3.828125 1.671875 -3.078125 Z M 1.671875 -3.078125 "/>
</symbol>
<symbol overflow="visible" id="glyph1-20">
<path style="stroke:none;" d="M 1.0625 -8.578125 L 2.078125 -8.578125 L 2.078125 0 L 1.0625 0 Z M 1.0625 -8.578125 "/>
</symbol>
<symbol overflow="visible" id="glyph1-21">
<path style="stroke:none;" d="M 0.546875 -3.546875 L 3.515625 -3.546875 L 3.515625 -2.640625 L 0.546875 -2.640625 Z M 0.546875 -3.546875 "/>
</symbol>
<symbol overflow="visible" id="glyph1-22">
<path style="stroke:none;" d="M 1.109375 -8.21875 L 2.765625 -8.21875 L 4.859375 -2.625 L 6.96875 -8.21875 L 8.625 -8.21875 L 8.625 0 L 7.546875 0 L 7.546875 -7.21875 L 5.421875 -1.578125 L 4.3125 -1.578125 L 2.1875 -7.21875 L 2.1875 0 L 1.109375 0 Z M 1.109375 -8.21875 "/>
</symbol>
<symbol overflow="visible" id="glyph1-23">
<path style="stroke:none;" d="M 3.453125 -5.453125 C 2.910156 -5.453125 2.476562 -5.238281 2.15625 -4.8125 C 1.84375 -4.394531 1.6875 -3.816406 1.6875 -3.078125 C 1.6875 -2.335938 1.84375 -1.753906 2.15625 -1.328125 C 2.476562 -0.910156 2.910156 -0.703125 3.453125 -0.703125 C 3.992188 -0.703125 4.421875 -0.914062 4.734375 -1.34375 C 5.054688 -1.769531 5.21875 -2.347656 5.21875 -3.078125 C 5.21875 -3.804688 5.054688 -4.382812 4.734375 -4.8125 C 4.421875 -5.238281 3.992188 -5.453125 3.453125 -5.453125 Z M 3.453125 -6.3125 C 4.335938 -6.3125 5.03125 -6.023438 5.53125 -5.453125 C 6.03125 -4.878906 6.28125 -4.085938 6.28125 -3.078125 C 6.28125 -2.066406 6.03125 -1.273438 5.53125 -0.703125 C 5.03125 -0.128906 4.335938 0.15625 3.453125 0.15625 C 2.566406 0.15625 1.875 -0.128906 1.375 -0.703125 C 0.875 -1.273438 0.625 -2.066406 0.625 -3.078125 C 0.625 -4.085938 0.875 -4.878906 1.375 -5.453125 C 1.875 -6.023438 2.566406 -6.3125 3.453125 -6.3125 Z M 3.453125 -6.3125 "/>
</symbol>
<symbol overflow="visible" id="glyph1-24">
<path style="stroke:none;" d="M 1.109375 -8.21875 L 6.3125 -8.21875 L 6.3125 -7.28125 L 2.21875 -7.28125 L 2.21875 -4.859375 L 6.140625 -4.859375 L 6.140625 -3.921875 L 2.21875 -3.921875 L 2.21875 -0.9375 L 6.40625 -0.9375 L 6.40625 0 L 1.109375 0 Z M 1.109375 -8.21875 "/>
</symbol>
<symbol overflow="visible" id="glyph1-25">
<path style="stroke:none;" d="M -0.03125 -8.21875 L 6.921875 -8.21875 L 6.921875 -7.28125 L 4 -7.28125 L 4 0 L 2.890625 0 L 2.890625 -7.28125 L -0.03125 -7.28125 Z M -0.03125 -8.21875 "/>
</symbol>
<symbol overflow="visible" id="glyph1-26">
<path style="stroke:none;" d="M 3.859375 -7.125 L 2.34375 -3.03125 L 5.375 -3.03125 Z M 3.234375 -8.21875 L 4.484375 -8.21875 L 7.625 0 L 6.46875 0 L 5.71875 -2.109375 L 2.015625 -2.109375 L 1.265625 0 L 0.09375 0 Z M 4.375 -10.296875 L 5.484375 -10.296875 L 5.484375 -9.171875 L 4.375 -9.171875 Z M 2.21875 -10.296875 L 3.328125 -10.296875 L 3.328125 -9.171875 L 2.21875 -9.171875 Z M 2.21875 -10.296875 "/>
</symbol>
<symbol overflow="visible" id="glyph1-27">
<path style="stroke:none;" d="M 3.859375 -7.125 L 2.34375 -3.03125 L 5.375 -3.03125 Z M 3.234375 -8.21875 L 4.484375 -8.21875 L 7.625 0 L 6.46875 0 L 5.71875 -2.109375 L 2.015625 -2.109375 L 1.265625 0 L 0.09375 0 Z M 3.234375 -8.21875 "/>
</symbol>
</g>
</defs>
<g id="surface143577">
<rect x="0" y="0" width="512" height="402" style="fill:rgb(100%,100%,100%);fill-opacity:1;stroke:none;"/>
<g style="fill:rgb(0%,0%,0%);fill-opacity:1;">
  <use xlink:href="#glyph0-1" x="365.984375" y="175.010037"/>
  <use xlink:href="#glyph0-2" x="369.313639" y="175.010037"/>
</g>
<g style="fill:rgb(0%,0%,0%);fill-opacity:1;">
  <use xlink:href="#glyph0-3" x="278.269531" y="215.010037"/>
  <use xlink:href="#glyph0-4" x="286.714355" y="215.010037"/>
  <use xlink:href="#glyph0-5" x="293.659885" y="215.010037"/>
  <use xlink:href="#glyph0-6" x="296.796278" y="215.010037"/>
</g>
<path style="fill-rule:evenodd;fill:rgb(100%,87.843138%,50.980395%);fill-opacity:1;stroke-width:0.05;stroke-linecap:butt;stroke-linejoin:miter;stroke:rgb(0%,0%,0%);stroke-opacity:1;stroke-miterlimit:10;" d="M 16.500078 8.000078 L 14.000078 9.000078 L 16.500078 10.000078 L 19.000078 9.000078 Z M 16.500078 8.000078 " transform="matrix(20,0,0,20,-18.9,1.1)"/>
<g style="fill:rgb(0%,0%,0%);fill-opacity:1;">
  <use xlink:href="#glyph0-5" x="297.625" y="184.845974"/>
  <use xlink:href="#glyph0-7" x="300.761393" y="184.845974"/>
  <use xlink:href="#glyph0-8" x="304.349989" y="184.845974"/>
  <use xlink:href="#glyph0-7" x="313.809082" y="184.845974"/>
  <use xlink:href="#glyph0-9" x="317.397678" y="184.845974"/>
</g>
<path style="fill-rule:evenodd;fill:rgb(93.725491%,60.392159%,60.392159%);fill-opacity:1;stroke-width:0.05;stroke-linecap:butt;stroke-linejoin:miter;stroke:rgb(0%,0%,0%);stroke-opacity:1;stroke-miterlimit:10;" d="M 1.000078 8.000078 L 9.000078 8.000078 L 9.000078 9.000078 L 1.000078 9.000078 Z M 1.000078 8.000078 " transform="matrix(20,0,0,20,-18.9,1.1)"/>
<path style="fill:none;stroke-width:0.05;stroke-linecap:butt;stroke-linejoin:miter;stroke:rgb(0%,0%,0%);stroke-opacity:1;stroke-miterlimit:10;" d="M 1.500078 8.000078 L 1.500078 9.000078 " transform="matrix(20,0,0,20,-18.9,1.1)"/>
<path style="fill:none;stroke-width:0.05;stroke-linecap:butt;stroke-linejoin:miter;stroke:rgb(0%,0%,0%);stroke-opacity:1;stroke-miterlimit:10;" d="M 8.500078 8.000078 L 8.500078 9.000078 " transform="matrix(20,0,0,20,-18.9,1.1)"/>
<path style="fill-rule:evenodd;fill:rgb(56.470591%,79.215688%,97.647059%);fill-opacity:1;stroke-width:0.05;stroke-linecap:butt;stroke-linejoin:round;stroke:rgb(0%,0%,0%);stroke-opacity:1;stroke-miterlimit:10;" d="M 4.000078 0.0000781251 C 3.723906 0.0000781251 3.500078 0.223906 3.500078 0.500078 C 3.500078 0.776055 3.723906 1.000078 4.000078 1.000078 L 6.000078 1.000078 C 6.276055 1.000078 6.500078 0.776055 6.500078 0.500078 C 6.500078 0.223906 6.276055 0.0000781251 6.000078 0.0000781251 Z M 4.000078 0.0000781251 " transform="matrix(20,0,0,20,-18.9,1.1)"/>
<g style="fill:rgb(0%,0%,0%);fill-opacity:1;">
  <use xlink:href="#glyph0-10" x="67.332031" y="15.010037"/>
  <use xlink:href="#glyph0-11" x="74.49783" y="15.010037"/>
  <use xlink:href="#glyph0-2" x="78.924099" y="15.010037"/>
  <use xlink:href="#glyph0-12" x="85.84196" y="15.010037"/>
  <use xlink:href="#glyph0-11" x="90.483344" y="15.010037"/>
</g>
<path style="fill:none;stroke-width:0.05;stroke-linecap:butt;stroke-linejoin:round;stroke:rgb(0%,0%,0%);stroke-opacity:1;stroke-miterlimit:10;" d="M 5.000078 1.000078 L 5.000078 1.76375 " transform="matrix(20,0,0,20,-18.9,1.1)"/>
<path style="fill-rule:evenodd;fill:rgb(0%,0%,0%);fill-opacity:1;stroke-width:0.05;stroke-linecap:butt;stroke-linejoin:miter;stroke:rgb(0%,0%,0%);stroke-opacity:1;stroke-miterlimit:10;" d="M 5.000078 1.98875 L 4.850078 1.68875 L 5.000078 1.76375 L 5.150078 1.68875 Z M 5.000078 1.98875 " transform="matrix(20,0,0,20,-18.9,1.1)"/>
<path style="fill:none;stroke-width:0.05;stroke-linecap:butt;stroke-linejoin:miter;stroke:rgb(0%,0%,0%);stroke-opacity:1;stroke-miterlimit:10;" d="M 5.000078 3.000078 L 5.000078 3.76375 " transform="matrix(20,0,0,20,-18.9,1.1)"/>
<path style="fill-rule:evenodd;fill:rgb(0%,0%,0%);fill-opacity:1;stroke-width:0.05;stroke-linecap:butt;stroke-linejoin:miter;stroke:rgb(0%,0%,0%);stroke-opacity:1;stroke-miterlimit:10;" d="M 5.000078 3.98875 L 4.850078 3.68875 L 5.000078 3.76375 L 5.150078 3.68875 Z M 5.000078 3.98875 " transform="matrix(20,0,0,20,-18.9,1.1)"/>
<path style="fill:none;stroke-width:0.05;stroke-linecap:butt;stroke-linejoin:miter;stroke:rgb(0%,0%,0%);stroke-opacity:1;stroke-miterlimit:10;" d="M 5.000078 7.000078 L 5.000078 7.76375 " transform="matrix(20,0,0,20,-18.9,1.1)"/>
<path style="fill-rule:evenodd;fill:rgb(0%,0%,0%);fill-opacity:1;stroke-width:0.05;stroke-linecap:butt;stroke-linejoin:miter;stroke:rgb(0%,0%,0%);stroke-opacity:1;stroke-miterlimit:10;" d="M 5.000078 7.98875 L 4.850078 7.68875 L 5.000078 7.76375 L 5.150078 7.68875 Z M 5.000078 7.98875 " transform="matrix(20,0,0,20,-18.9,1.1)"/>
<path style="fill-rule:evenodd;fill:rgb(93.725491%,60.392159%,60.392159%);fill-opacity:1;stroke-width:0.05;stroke-linecap:butt;stroke-linejoin:miter;stroke:rgb(0%,0%,0%);stroke-opacity:1;stroke-miterlimit:10;" d="M 1.000078 12.000078 L 9.000078 12.000078 L 9.000078 13.000078 L 1.000078 13.000078 Z M 1.000078 12.000078 " transform="matrix(20,0,0,20,-18.9,1.1)"/>
<path style="fill:none;stroke-width:0.05;stroke-linecap:butt;stroke-linejoin:miter;stroke:rgb(0%,0%,0%);stroke-opacity:1;stroke-miterlimit:10;" d="M 1.500078 12.000078 L 1.500078 13.000078 " transform="matrix(20,0,0,20,-18.9,1.1)"/>
<path style="fill:none;stroke-width:0.05;stroke-linecap:butt;stroke-linejoin:miter;stroke:rgb(0%,0%,0%);stroke-opacity:1;stroke-miterlimit:10;" d="M 8.500078 12.000078 L 8.500078 13.000078 " transform="matrix(20,0,0,20,-18.9,1.1)"/>
<path style="fill-rule:evenodd;fill:rgb(64.705884%,83.92157%,65.490198%);fill-opacity:1;stroke-width:0.05;stroke-linecap:butt;stroke-linejoin:miter;stroke:rgb(0%,0%,0%);stroke-opacity:1;stroke-miterlimit:10;" d="M 1.000078 10.000078 L 9.000078 10.000078 L 9.000078 11.000078 L 1.000078 11.000078 Z M 1.000078 10.000078 " transform="matrix(20,0,0,20,-18.9,1.1)"/>
<path style="fill:none;stroke-width:0.05;stroke-linecap:butt;stroke-linejoin:miter;stroke:rgb(0%,0%,0%);stroke-opacity:1;stroke-miterlimit:10;" d="M 5.000078 9.000078 L 5.000078 9.76375 " transform="matrix(20,0,0,20,-18.9,1.1)"/>
<path style="fill-rule:evenodd;fill:rgb(0%,0%,0%);fill-opacity:1;stroke-width:0.05;stroke-linecap:butt;stroke-linejoin:miter;stroke:rgb(0%,0%,0%);stroke-opacity:1;stroke-miterlimit:10;" d="M 5.000078 9.98875 L 4.850078 9.68875 L 5.000078 9.76375 L 5.150078 9.68875 Z M 5.000078 9.98875 " transform="matrix(20,0,0,20,-18.9,1.1)"/>
<path style="fill:none;stroke-width:0.05;stroke-linecap:butt;stroke-linejoin:miter;stroke:rgb(0%,0%,0%);stroke-opacity:1;stroke-miterlimit:10;" d="M 5.000078 11.000078 L 5.000078 11.76375 " transform="matrix(20,0,0,20,-18.9,1.1)"/>
<path style="fill-rule:evenodd;fill:rgb(0%,0%,0%);fill-opacity:1;stroke-width:0.05;stroke-linecap:butt;stroke-linejoin:miter;stroke:rgb(0%,0%,0%);stroke-opacity:1;stroke-miterlimit:10;" d="M 5.000078 11.98875 L 4.850078 11.68875 L 5.000078 11.76375 L 5.150078 11.68875 Z M 5.000078 11.98875 " transform="matrix(20,0,0,20,-18.9,1.1)"/>
<path style="fill-rule:evenodd;fill:rgb(93.725491%,60.392159%,60.392159%);fill-opacity:1;stroke-width:0.05;stroke-linecap:butt;stroke-linejoin:miter;stroke:rgb(0%,0%,0%);stroke-opacity:1;stroke-miterlimit:10;" d="M 1.000078 16.000078 L 9.000078 16.000078 L 9.000078 17.000078 L 1.000078 17.000078 Z M 1.000078 16.000078 " transform="matrix(20,0,0,20,-18.9,1.1)"/>
<path style="fill:none;stroke-width:0.05;stroke-linecap:butt;stroke-linejoin:miter;stroke:rgb(0%,0%,0%);stroke-opacity:1;stroke-miterlimit:10;" d="M 1.500078 16.000078 L 1.500078 17.000078 " transform="matrix(20,0,0,20,-18.9,1.1)"/>
<path style="fill:none;stroke-width:0.05;stroke-linecap:butt;stroke-linejoin:miter;stroke:rgb(0%,0%,0%);stroke-opacity:1;stroke-miterlimit:10;" d="M 8.500078 16.000078 L 8.500078 17.000078 " transform="matrix(20,0,0,20,-18.9,1.1)"/>
<path style="fill-rule:evenodd;fill:rgb(64.705884%,83.92157%,65.490198%);fill-opacity:1;stroke-width:0.05;stroke-linecap:butt;stroke-linejoin:miter;stroke:rgb(0%,0%,0%);stroke-opacity:1;stroke-miterlimit:10;" d="M 1.000078 14.000078 L 9.000078 14.000078 L 9.000078 15.000078 L 1.000078 15.000078 Z M 1.000078 14.000078 " transform="matrix(20,0,0,20,-18.9,1.1)"/>
<path style="fill:none;stroke-width:0.05;stroke-linecap:butt;stroke-linejoin:miter;stroke:rgb(0%,0%,0%);stroke-opacity:1;stroke-miterlimit:10;" d="M 5.000078 13.000078 L 5.000078 13.76375 " transform="matrix(20,0,0,20,-18.9,1.1)"/>
<path style="fill-rule:evenodd;fill:rgb(0%,0%,0%);fill-opacity:1;stroke-width:0.05;stroke-linecap:butt;stroke-linejoin:miter;stroke:rgb(0%,0%,0%);stroke-opacity:1;stroke-miterlimit:10;" d="M 5.000078 13.98875 L 4.850078 13.68875 L 5.000078 13.76375 L 5.150078 13.68875 Z M 5.000078 13.98875 " transform="matrix(20,0,0,20,-18.9,1.1)"/>
<path style="fill:none;stroke-width:0.05;stroke-linecap:butt;stroke-linejoin:miter;stroke:rgb(0%,0%,0%);stroke-opacity:1;stroke-miterlimit:10;" d="M 5.000078 15.000078 L 5.000078 15.76375 " transform="matrix(20,0,0,20,-18.9,1.1)"/>
<path style="fill-rule:evenodd;fill:rgb(0%,0%,0%);fill-opacity:1;stroke-width:0.05;stroke-linecap:butt;stroke-linejoin:miter;stroke:rgb(0%,0%,0%);stroke-opacity:1;stroke-miterlimit:10;" d="M 5.000078 15.98875 L 4.850078 15.68875 L 5.000078 15.76375 L 5.150078 15.68875 Z M 5.000078 15.98875 " transform="matrix(20,0,0,20,-18.9,1.1)"/>
<path style="fill-rule:evenodd;fill:rgb(56.470591%,79.215688%,97.647059%);fill-opacity:1;stroke-width:0.05;stroke-linecap:butt;stroke-linejoin:round;stroke:rgb(0%,0%,0%);stroke-opacity:1;stroke-miterlimit:10;" d="M 4.000078 18.000078 C 3.723906 18.000078 3.500078 18.223906 3.500078 18.500078 C 3.500078 18.776055 3.723906 19.000078 4.000078 19.000078 L 6.000078 19.000078 C 6.276055 19.000078 6.500078 18.776055 6.500078 18.500078 C 6.500078 18.223906 6.276055 18.000078 6.000078 18.000078 Z M 4.000078 18.000078 " transform="matrix(20,0,0,20,-18.9,1.1)"/>
<g style="fill:rgb(0%,0%,0%);fill-opacity:1;">
  <use xlink:href="#glyph0-13" x="66.902344" y="375.010037"/>
  <use xlink:href="#glyph0-6" x="74.035048" y="375.010037"/>
  <use xlink:href="#glyph0-14" x="81.189996" y="375.010037"/>
  <use xlink:href="#glyph0-4" x="88.355794" y="375.010037"/>
</g>
<path style="fill:none;stroke-width:0.05;stroke-linecap:butt;stroke-linejoin:round;stroke:rgb(0%,0%,0%);stroke-opacity:1;stroke-miterlimit:10;" d="M 5.000078 17.000078 L 5.000078 17.76375 " transform="matrix(20,0,0,20,-18.9,1.1)"/>
<path style="fill-rule:evenodd;fill:rgb(0%,0%,0%);fill-opacity:1;stroke-width:0.05;stroke-linecap:butt;stroke-linejoin:miter;stroke:rgb(0%,0%,0%);stroke-opacity:1;stroke-miterlimit:10;" d="M 5.000078 17.98875 L 4.850078 17.68875 L 5.000078 17.76375 L 5.150078 17.68875 Z M 5.000078 17.98875 " transform="matrix(20,0,0,20,-18.9,1.1)"/>
<path style="fill-rule:evenodd;fill:rgb(64.705884%,83.92157%,65.490198%);fill-opacity:1;stroke-width:0.05;stroke-linecap:butt;stroke-linejoin:miter;stroke:rgb(0%,0%,0%);stroke-opacity:1;stroke-miterlimit:10;" d="M 12.500078 2.000078 L 20.500078 2.000078 L 20.500078 3.000078 L 12.500078 3.000078 Z M 12.500078 2.000078 " transform="matrix(20,0,0,20,-18.9,1.1)"/>
<path style="fill-rule:evenodd;fill:rgb(56.470591%,79.215688%,97.647059%);fill-opacity:1;stroke-width:0.05;stroke-linecap:butt;stroke-linejoin:round;stroke:rgb(0%,0%,0%);stroke-opacity:1;stroke-miterlimit:10;" d="M 13.500078 0.0000781251 C 13.223906 0.0000781251 13.000078 0.223906 13.000078 0.500078 C 13.000078 0.776055 13.223906 1.000078 13.500078 1.000078 L 19.500078 1.000078 C 19.776055 1.000078 20.000078 0.776055 20.000078 0.500078 C 20.000078 0.223906 19.776055 0.0000781251 19.500078 0.0000781251 Z M 13.500078 0.0000781251 " transform="matrix(20,0,0,20,-18.9,1.1)"/>
<g style="fill:rgb(0%,0%,0%);fill-opacity:1;">
  <use xlink:href="#glyph0-15" x="247.136719" y="15.010037"/>
  <use xlink:href="#glyph0-6" x="254.291667" y="15.010037"/>
  <use xlink:href="#glyph0-11" x="261.446615" y="15.010037"/>
  <use xlink:href="#glyph0-4" x="265.872884" y="15.010037"/>
  <use xlink:href="#glyph0-12" x="272.818414" y="15.010037"/>
  <use xlink:href="#glyph0-16" x="277.459798" y="15.010037"/>
  <use xlink:href="#glyph0-12" x="284.625597" y="15.010037"/>
  <use xlink:href="#glyph0-17" x="289.018772" y="15.010037"/>
  <use xlink:href="#glyph0-18" x="295.92551" y="15.010037"/>
  <use xlink:href="#glyph0-12" x="303.091309" y="15.010037"/>
  <use xlink:href="#glyph0-2" x="307.732693" y="15.010037"/>
  <use xlink:href="#glyph0-19" x="314.650553" y="15.010037"/>
  <use xlink:href="#glyph0-19" x="325.647461" y="15.010037"/>
  <use xlink:href="#glyph0-20" x="336.644368" y="15.010037"/>
  <use xlink:href="#glyph0-21" x="341.048665" y="15.010037"/>
  <use xlink:href="#glyph0-2" x="345.023003" y="15.010037"/>
  <use xlink:href="#glyph0-12" x="351.940864" y="15.010037"/>
  <use xlink:href="#glyph0-22" x="356.582248" y="15.010037"/>
  <use xlink:href="#glyph0-4" x="363.748047" y="15.010037"/>
  <use xlink:href="#glyph0-23" x="370.693576" y="15.010037"/>
</g>
<path style="fill:none;stroke-width:0.05;stroke-linecap:butt;stroke-linejoin:round;stroke:rgb(0%,0%,0%);stroke-opacity:1;stroke-miterlimit:10;" d="M 16.500078 1.000078 L 16.500078 1.76375 " transform="matrix(20,0,0,20,-18.9,1.1)"/>
<path style="fill-rule:evenodd;fill:rgb(0%,0%,0%);fill-opacity:1;stroke-width:0.05;stroke-linecap:butt;stroke-linejoin:miter;stroke:rgb(0%,0%,0%);stroke-opacity:1;stroke-miterlimit:10;" d="M 16.500078 1.98875 L 16.350078 1.68875 L 16.500078 1.76375 L 16.650078 1.68875 Z M 16.500078 1.98875 " transform="matrix(20,0,0,20,-18.9,1.1)"/>
<path style="fill-rule:evenodd;fill:rgb(64.705884%,83.92157%,65.490198%);fill-opacity:1;stroke-width:0.05;stroke-linecap:butt;stroke-linejoin:miter;stroke:rgb(0%,0%,0%);stroke-opacity:1;stroke-miterlimit:10;" d="M 12.500078 4.000078 L 20.500078 4.000078 L 20.500078 5.000078 L 12.500078 5.000078 Z M 12.500078 4.000078 " transform="matrix(20,0,0,20,-18.9,1.1)"/>
<path style="fill:none;stroke-width:0.05;stroke-linecap:butt;stroke-linejoin:miter;stroke:rgb(0%,0%,0%);stroke-opacity:1;stroke-miterlimit:10;" d="M 16.500078 3.000078 L 16.500078 3.76375 " transform="matrix(20,0,0,20,-18.9,1.1)"/>
<path style="fill-rule:evenodd;fill:rgb(0%,0%,0%);fill-opacity:1;stroke-width:0.05;stroke-linecap:butt;stroke-linejoin:miter;stroke:rgb(0%,0%,0%);stroke-opacity:1;stroke-miterlimit:10;" d="M 16.500078 3.98875 L 16.350078 3.68875 L 16.500078 3.76375 L 16.650078 3.68875 Z M 16.500078 3.98875 " transform="matrix(20,0,0,20,-18.9,1.1)"/>
<path style="fill:none;stroke-width:0.05;stroke-linecap:butt;stroke-linejoin:miter;stroke:rgb(0%,0%,0%);stroke-opacity:1;stroke-miterlimit:10;" d="M 16.500078 5.000078 L 16.500078 5.76375 " transform="matrix(20,0,0,20,-18.9,1.1)"/>
<path style="fill-rule:evenodd;fill:rgb(0%,0%,0%);fill-opacity:1;stroke-width:0.05;stroke-linecap:butt;stroke-linejoin:miter;stroke:rgb(0%,0%,0%);stroke-opacity:1;stroke-miterlimit:10;" d="M 16.500078 5.98875 L 16.350078 5.68875 L 16.500078 5.76375 L 16.650078 5.68875 Z M 16.500078 5.98875 " transform="matrix(20,0,0,20,-18.9,1.1)"/>
<path style="fill-rule:evenodd;fill:rgb(64.705884%,83.92157%,65.490198%);fill-opacity:1;stroke-width:0.05;stroke-linecap:butt;stroke-linejoin:miter;stroke:rgb(0%,0%,0%);stroke-opacity:1;stroke-miterlimit:10;" d="M 12.500078 6.000078 L 20.500078 6.000078 L 20.500078 7.000078 L 12.500078 7.000078 Z M 12.500078 6.000078 " transform="matrix(20,0,0,20,-18.9,1.1)"/>
<path style="fill:none;stroke-width:0.05;stroke-linecap:butt;stroke-linejoin:miter;stroke:rgb(0%,0%,0%);stroke-opacity:1;stroke-miterlimit:10;" d="M 16.500078 7.000078 L 16.500078 7.76375 " transform="matrix(20,0,0,20,-18.9,1.1)"/>
<path style="fill-rule:evenodd;fill:rgb(0%,0%,0%);fill-opacity:1;stroke-width:0.05;stroke-linecap:butt;stroke-linejoin:miter;stroke:rgb(0%,0%,0%);stroke-opacity:1;stroke-miterlimit:10;" d="M 16.500078 7.98875 L 16.350078 7.68875 L 16.500078 7.76375 L 16.650078 7.68875 Z M 16.500078 7.98875 " transform="matrix(20,0,0,20,-18.9,1.1)"/>
<g style="fill:rgb(0%,0%,0%);fill-opacity:1;">
  <use xlink:href="#glyph1-1" x="276.492188" y="134.845161"/>
  <use xlink:href="#glyph1-2" x="282.373264" y="134.845161"/>
  <use xlink:href="#glyph1-3" x="289.31798" y="134.845161"/>
  <use xlink:href="#glyph1-4" x="293.743978" y="134.845161"/>
  <use xlink:href="#glyph1-2" x="299.669" y="134.845161"/>
  <use xlink:href="#glyph1-5" x="306.613715" y="134.845161"/>
  <use xlink:href="#glyph1-6" x="310.201769" y="134.845161"/>
  <use xlink:href="#glyph1-5" x="313.337891" y="134.845161"/>
  <use xlink:href="#glyph1-7" x="316.925944" y="134.845161"/>
  <use xlink:href="#glyph1-8" x="323.843262" y="134.845161"/>
  <use xlink:href="#glyph1-9" x="330.997396" y="134.845161"/>
  <use xlink:href="#glyph1-5" x="334.971463" y="134.845161"/>
  <use xlink:href="#glyph1-10" x="338.559516" y="134.845161"/>
</g>
<path style="fill-rule:evenodd;fill:rgb(64.705884%,83.92157%,65.490198%);fill-opacity:1;stroke-width:0.05;stroke-linecap:butt;stroke-linejoin:miter;stroke:rgb(0%,0%,0%);stroke-opacity:1;stroke-miterlimit:10;" d="M 17.500078 11.000078 L 25.500078 11.000078 L 25.500078 12.000078 L 17.500078 12.000078 Z M 17.500078 11.000078 " transform="matrix(20,0,0,20,-18.9,1.1)"/>
<path style="fill:none;stroke-width:0.05;stroke-linecap:butt;stroke-linejoin:miter;stroke:rgb(0%,0%,0%);stroke-opacity:1;stroke-miterlimit:10;" d="M 19.000078 9.000078 L 21.500078 9.000078 L 21.500078 10.76375 " transform="matrix(20,0,0,20,-18.9,1.1)"/>
<path style="fill-rule:evenodd;fill:rgb(0%,0%,0%);fill-opacity:1;stroke-width:0.05;stroke-linecap:butt;stroke-linejoin:miter;stroke:rgb(0%,0%,0%);stroke-opacity:1;stroke-miterlimit:10;" d="M 21.500078 10.98875 L 21.350078 10.68875 L 21.500078 10.76375 L 21.650078 10.68875 Z M 21.500078 10.98875 " transform="matrix(20,0,0,20,-18.9,1.1)"/>
<path style="fill-rule:evenodd;fill:rgb(64.705884%,83.92157%,65.490198%);fill-opacity:1;stroke-width:0.05;stroke-linecap:butt;stroke-linejoin:miter;stroke:rgb(0%,0%,0%);stroke-opacity:1;stroke-miterlimit:10;" d="M 17.500078 13.000078 L 25.500078 13.000078 L 25.500078 14.000078 L 17.500078 14.000078 Z M 17.500078 13.000078 " transform="matrix(20,0,0,20,-18.9,1.1)"/>
<path style="fill:none;stroke-width:0.05;stroke-linecap:butt;stroke-linejoin:miter;stroke:rgb(0%,0%,0%);stroke-opacity:1;stroke-miterlimit:10;" d="M 21.500078 12.000078 L 21.500078 12.76375 " transform="matrix(20,0,0,20,-18.9,1.1)"/>
<path style="fill-rule:evenodd;fill:rgb(0%,0%,0%);fill-opacity:1;stroke-width:0.05;stroke-linecap:butt;stroke-linejoin:miter;stroke:rgb(0%,0%,0%);stroke-opacity:1;stroke-miterlimit:10;" d="M 21.500078 12.98875 L 21.350078 12.68875 L 21.500078 12.76375 L 21.650078 12.68875 Z M 21.500078 12.98875 " transform="matrix(20,0,0,20,-18.9,1.1)"/>
<path style="fill:none;stroke-width:0.05;stroke-linecap:butt;stroke-linejoin:miter;stroke:rgb(0%,0%,0%);stroke-opacity:1;stroke-miterlimit:10;" d="M 21.500078 14.000078 L 21.500078 14.76375 " transform="matrix(20,0,0,20,-18.9,1.1)"/>
<path style="fill-rule:evenodd;fill:rgb(0%,0%,0%);fill-opacity:1;stroke-width:0.05;stroke-linecap:butt;stroke-linejoin:miter;stroke:rgb(0%,0%,0%);stroke-opacity:1;stroke-miterlimit:10;" d="M 21.500078 14.98875 L 21.350078 14.68875 L 21.500078 14.76375 L 21.650078 14.68875 Z M 21.500078 14.98875 " transform="matrix(20,0,0,20,-18.9,1.1)"/>
<path style="fill-rule:evenodd;fill:rgb(64.705884%,83.92157%,65.490198%);fill-opacity:1;stroke-width:0.05;stroke-linecap:butt;stroke-linejoin:miter;stroke:rgb(0%,0%,0%);stroke-opacity:1;stroke-miterlimit:10;" d="M 17.500078 15.000078 L 25.500078 15.000078 L 25.500078 16.000078 L 17.500078 16.000078 Z M 17.500078 15.000078 " transform="matrix(20,0,0,20,-18.9,1.1)"/>
<g style="fill:rgb(0%,0%,0%);fill-opacity:1;">
  <use xlink:href="#glyph1-2" x="371.726563" y="315.009223"/>
  <use xlink:href="#glyph1-11" x="378.671278" y="315.009223"/>
  <use xlink:href="#glyph1-12" x="383.113824" y="315.009223"/>
  <use xlink:href="#glyph1-13" x="390.267958" y="315.009223"/>
  <use xlink:href="#glyph1-12" x="397.174154" y="315.009223"/>
  <use xlink:href="#glyph1-2" x="404.328288" y="315.009223"/>
  <use xlink:href="#glyph1-5" x="411.273003" y="315.009223"/>
  <use xlink:href="#glyph1-6" x="414.861057" y="315.009223"/>
  <use xlink:href="#glyph1-5" x="417.997179" y="315.009223"/>
  <use xlink:href="#glyph1-8" x="421.585232" y="315.009223"/>
  <use xlink:href="#glyph1-14" x="428.739366" y="315.009223"/>
  <use xlink:href="#glyph1-5" x="439.73546" y="315.009223"/>
  <use xlink:href="#glyph1-15" x="443.323513" y="315.009223"/>
</g>
<path style="fill:none;stroke-width:0.05;stroke-linecap:butt;stroke-linejoin:miter;stroke:rgb(0%,0%,0%);stroke-opacity:1;stroke-miterlimit:10;" d="M 21.500078 16.000078 L 21.500078 17.000078 L 26.500078 17.000078 L 26.500078 7.500078 L 16.736211 7.500078 " transform="matrix(20,0,0,20,-18.9,1.1)"/>
<path style="fill-rule:evenodd;fill:rgb(0%,0%,0%);fill-opacity:1;stroke-width:0.05;stroke-linecap:butt;stroke-linejoin:miter;stroke:rgb(0%,0%,0%);stroke-opacity:1;stroke-miterlimit:10;" d="M 16.511211 7.500078 L 16.811211 7.350078 L 16.736211 7.500078 L 16.811211 7.650078 Z M 16.511211 7.500078 " transform="matrix(20,0,0,20,-18.9,1.1)"/>
<path style="fill-rule:evenodd;fill:rgb(64.705884%,83.92157%,65.490198%);fill-opacity:1;stroke-width:0.05;stroke-linecap:butt;stroke-linejoin:miter;stroke:rgb(0%,0%,0%);stroke-opacity:1;stroke-miterlimit:10;" d="M 12.500078 17.000078 L 20.500078 17.000078 L 20.500078 18.000078 L 12.500078 18.000078 Z M 12.500078 17.000078 " transform="matrix(20,0,0,20,-18.9,1.1)"/>
<path style="fill:none;stroke-width:0.05;stroke-linecap:butt;stroke-linejoin:miter;stroke:rgb(0%,0%,0%);stroke-opacity:1;stroke-miterlimit:10;" d="M 16.500078 10.000078 L 16.500078 16.76375 " transform="matrix(20,0,0,20,-18.9,1.1)"/>
<path style="fill-rule:evenodd;fill:rgb(0%,0%,0%);fill-opacity:1;stroke-width:0.05;stroke-linecap:butt;stroke-linejoin:miter;stroke:rgb(0%,0%,0%);stroke-opacity:1;stroke-miterlimit:10;" d="M 16.500078 16.98875 L 16.350078 16.68875 L 16.500078 16.76375 L 16.650078 16.68875 Z M 16.500078 16.98875 " transform="matrix(20,0,0,20,-18.9,1.1)"/>
<path style="fill-rule:evenodd;fill:rgb(56.470591%,79.215688%,97.647059%);fill-opacity:1;stroke-width:0.05;stroke-linecap:butt;stroke-linejoin:round;stroke:rgb(0%,0%,0%);stroke-opacity:1;stroke-miterlimit:10;" d="M 15.500078 19.000078 C 15.223906 19.000078 15.000078 19.223906 15.000078 19.500078 C 15.000078 19.776055 15.223906 20.000078 15.500078 20.000078 L 17.500078 20.000078 C 17.776055 20.000078 18.000078 19.776055 18.000078 19.500078 C 18.000078 19.223906 17.776055 19.000078 17.500078 19.000078 Z M 15.500078 19.000078 " transform="matrix(20,0,0,20,-18.9,1.1)"/>
<g style="fill:rgb(0%,0%,0%);fill-opacity:1;">
  <use xlink:href="#glyph0-13" x="296.902344" y="395.010037"/>
  <use xlink:href="#glyph0-6" x="304.035048" y="395.010037"/>
  <use xlink:href="#glyph0-14" x="311.189996" y="395.010037"/>
  <use xlink:href="#glyph0-4" x="318.355794" y="395.010037"/>
</g>
<path style="fill:none;stroke-width:0.05;stroke-linecap:butt;stroke-linejoin:round;stroke:rgb(0%,0%,0%);stroke-opacity:1;stroke-miterlimit:10;" d="M 16.500078 18.000078 L 16.500078 18.76375 " transform="matrix(20,0,0,20,-18.9,1.1)"/>
<path style="fill-rule:evenodd;fill:rgb(0%,0%,0%);fill-opacity:1;stroke-width:0.05;stroke-linecap:butt;stroke-linejoin:miter;stroke:rgb(0%,0%,0%);stroke-opacity:1;stroke-miterlimit:10;" d="M 16.500078 18.98875 L 16.350078 18.68875 L 16.500078 18.76375 L 16.650078 18.68875 Z M 16.500078 18.98875 " transform="matrix(20,0,0,20,-18.9,1.1)"/>
<path style="fill-rule:evenodd;fill:rgb(64.705884%,83.92157%,65.490198%);fill-opacity:1;stroke-width:0.05;stroke-linecap:butt;stroke-linejoin:miter;stroke:rgb(0%,0%,0%);stroke-opacity:1;stroke-miterlimit:10;" d="M 1.000078 2.000078 L 9.000078 2.000078 L 9.000078 3.000078 L 1.000078 3.000078 Z M 1.000078 2.000078 " transform="matrix(20,0,0,20,-18.9,1.1)"/>
<g style="fill:rgb(0%,0%,0%);fill-opacity:1;">
  <use xlink:href="#glyph1-16" x="16.921875" y="54.845161"/>
  <use xlink:href="#glyph1-2" x="23.767849" y="54.845161"/>
  <use xlink:href="#glyph1-11" x="30.712565" y="54.845161"/>
  <use xlink:href="#glyph1-17" x="35.353407" y="54.845161"/>
  <use xlink:href="#glyph1-2" x="44.58572" y="54.845161"/>
  <use xlink:href="#glyph1-18" x="51.530436" y="54.845161"/>
  <use xlink:href="#glyph1-19" x="58.68457" y="54.845161"/>
  <use xlink:href="#glyph1-2" x="65.849826" y="54.845161"/>
  <use xlink:href="#glyph1-5" x="72.794542" y="54.845161"/>
  <use xlink:href="#glyph1-3" x="76.382595" y="54.845161"/>
  <use xlink:href="#glyph1-8" x="80.808594" y="54.845161"/>
  <use xlink:href="#glyph1-11" x="87.962728" y="54.845161"/>
  <use xlink:href="#glyph1-3" x="92.60357" y="54.845161"/>
  <use xlink:href="#glyph1-20" x="97.029568" y="54.845161"/>
  <use xlink:href="#glyph1-2" x="100.16569" y="54.845161"/>
  <use xlink:href="#glyph1-21" x="107.110406" y="54.845161"/>
  <use xlink:href="#glyph1-22" x="111.183485" y="54.845161"/>
  <use xlink:href="#glyph1-23" x="120.922797" y="54.845161"/>
  <use xlink:href="#glyph1-19" x="127.828993" y="54.845161"/>
  <use xlink:href="#glyph1-8" x="134.994249" y="54.845161"/>
  <use xlink:href="#glyph1-20" x="142.148383" y="54.845161"/>
</g>
<path style="fill-rule:evenodd;fill:rgb(64.705884%,83.92157%,65.490198%);fill-opacity:1;stroke-width:0.05;stroke-linecap:butt;stroke-linejoin:miter;stroke:rgb(0%,0%,0%);stroke-opacity:1;stroke-miterlimit:10;" d="M 1.000078 4.000078 L 9.000078 4.000078 L 9.000078 5.000078 L 1.000078 5.000078 Z M 1.000078 4.000078 " transform="matrix(20,0,0,20,-18.9,1.1)"/>
<g style="fill:rgb(0%,0%,0%);fill-opacity:1;">
  <use xlink:href="#glyph1-24" x="28.5625" y="94.845161"/>
  <use xlink:href="#glyph1-11" x="35.694661" y="94.845161"/>
  <use xlink:href="#glyph1-1" x="40.335503" y="94.845161"/>
  <use xlink:href="#glyph1-3" x="46.21658" y="94.845161"/>
  <use xlink:href="#glyph1-2" x="50.642578" y="94.845161"/>
  <use xlink:href="#glyph1-20" x="57.587294" y="94.845161"/>
  <use xlink:href="#glyph1-20" x="60.723416" y="94.845161"/>
  <use xlink:href="#glyph1-2" x="63.859538" y="94.845161"/>
  <use xlink:href="#glyph1-5" x="70.804253" y="94.845161"/>
  <use xlink:href="#glyph1-2" x="74.392307" y="94.845161"/>
  <use xlink:href="#glyph1-6" x="81.337023" y="94.845161"/>
  <use xlink:href="#glyph1-18" x="84.473145" y="94.845161"/>
  <use xlink:href="#glyph1-2" x="91.627279" y="94.845161"/>
  <use xlink:href="#glyph1-5" x="98.571994" y="94.845161"/>
  <use xlink:href="#glyph1-25" x="102.160048" y="94.845161"/>
  <use xlink:href="#glyph1-8" x="107.342339" y="94.845161"/>
  <use xlink:href="#glyph1-11" x="114.496474" y="94.845161"/>
  <use xlink:href="#glyph1-3" x="119.137316" y="94.845161"/>
  <use xlink:href="#glyph1-20" x="123.563314" y="94.845161"/>
  <use xlink:href="#glyph1-2" x="126.699436" y="94.845161"/>
</g>
<path style="fill-rule:evenodd;fill:rgb(64.705884%,83.92157%,65.490198%);fill-opacity:1;stroke-width:0.05;stroke-linecap:butt;stroke-linejoin:miter;stroke:rgb(0%,0%,0%);stroke-opacity:1;stroke-miterlimit:10;" d="M 1.000078 6.000078 L 9.000078 6.000078 L 9.000078 7.000078 L 1.000078 7.000078 Z M 1.000078 6.000078 " transform="matrix(20,0,0,20,-18.9,1.1)"/>
<g style="fill:rgb(0%,0%,0%);fill-opacity:1;">
  <use xlink:href="#glyph1-26" x="31.746094" y="134.845161"/>
  <use xlink:href="#glyph1-18" x="39.46799" y="134.845161"/>
  <use xlink:href="#glyph1-19" x="46.622125" y="134.845161"/>
  <use xlink:href="#glyph1-2" x="53.787381" y="134.845161"/>
  <use xlink:href="#glyph1-11" x="60.732096" y="134.845161"/>
  <use xlink:href="#glyph1-2" x="65.125" y="134.845161"/>
  <use xlink:href="#glyph1-5" x="72.069716" y="134.845161"/>
  <use xlink:href="#glyph1-27" x="75.657769" y="134.845161"/>
  <use xlink:href="#glyph1-8" x="83.379666" y="134.845161"/>
  <use xlink:href="#glyph1-1" x="90.5338" y="134.845161"/>
  <use xlink:href="#glyph1-1" x="96.414876" y="134.845161"/>
  <use xlink:href="#glyph1-2" x="102.295953" y="134.845161"/>
  <use xlink:href="#glyph1-12" x="109.240668" y="134.845161"/>
  <use xlink:href="#glyph1-2" x="116.394803" y="134.845161"/>
  <use xlink:href="#glyph1-18" x="123.339518" y="134.845161"/>
</g>
<path style="fill:none;stroke-width:0.05;stroke-linecap:butt;stroke-linejoin:miter;stroke:rgb(0%,0%,0%);stroke-opacity:1;stroke-miterlimit:10;" d="M 5.000078 5.000078 L 5.000078 5.76375 " transform="matrix(20,0,0,20,-18.9,1.1)"/>
<path style="fill-rule:evenodd;fill:rgb(0%,0%,0%);fill-opacity:1;stroke-width:0.05;stroke-linecap:butt;stroke-linejoin:miter;stroke:rgb(0%,0%,0%);stroke-opacity:1;stroke-miterlimit:10;" d="M 5.000078 5.98875 L 4.850078 5.68875 L 5.000078 5.76375 L 5.150078 5.68875 Z M 5.000078 5.98875 " transform="matrix(20,0,0,20,-18.9,1.1)"/>
</g>
</svg>
