<?xml version="1.0" encoding="UTF-8"?>
<svg width="150" height="150">
  <g stroke="rgb(0, 0, 0)" stroke-width="3" fill="none">
    <path d="M 50,1 L 148,1 148,50 100,50 100,148 1,148 1,100 50,100 50,1"/>
  </g>
</svg>
