{
  "binary.jpg": {
    "author_name": "Gerd Altmann",
    "author_uri": "https://pixabay.com/de/users/geralt-9301/",
    "licence": "CC0",
    "source_name": "Pixabay",
    "source_uri": "https://pixabay.com/images/id-475664/"
  },
  "braille.jpg": {
    "author_name": "antonioxalonso",
    "author_uri": "https://www.flickr.com/photos/fotoblasete/",
    "licence": "CC-BY-2.0",
    "source_name": "Flickr",
    "source_uri": "https://www.flickr.com/photos/fotoblasete/3780972882/sizes/o/"
  },
  "jacquard-loom-punchcards.jpg": {
    "author_name": "George H. Williams",
    "author_uri": "https://commons.wikimedia.org/wiki/User:GeorgeOnline",
    "licence": "CC-BY-SA-3.0",
    "source_name": "Wikimedia Commons",
    "source_uri": "https://commons.wikimedia.org/wiki/File:Jacquard_loom,_6_of_6.jpg"
  }
}
